{
    "comments": {},
    // symbols used as brackets
    "brackets": [
        [
            "{",
            "}"
        ],
        [
            "[",
            "]"
        ],
        [
            "(",
            ")"
        ]
    ],
    // symbols that are auto closed when typing
    "autoClosingPairs": [
        [
            "{",
            "}"
        ],
        [
            "[",
            "]"
        ],
        [
            "(",
            ")"
        ],
        [
            "\"",
            "\""
        ],
        [
            "'",
            "'"
        ]
    ],
    "autoCloseBefore": "\n\t",
    // symbols that can be used to surround a selection
    "surroundingPairs": [
        [
            "{",
            "}"
        ],
        [
            "[",
            "]"
        ],
        [
            "(",
            ")"
        ],
        [
            "\"",
            "\""
        ],
        [
            "'",
            "'"
        ]
    ],
}